{
    "parts": [
        {
            "name": "ep_delete_after_age",
            "hooks": {
                "handleMessage" : "ep_delete_after_age/delete",
                "expressCreateServer" : "ep_delete_after_age/delete:registerRoute"
            }
        }
    ]
}
